﻿{
    "sites": [
        {
            "key": "闪修手机维修",
            "name": "修手机桃爸比",
            "type": 3,
            "api": "csp_DouDou",
            "searchable": 0,
            "quickSearch": 0,
            "filterable": 0
        },
        {
            "key": "meowtv_ngys",
            "name": "南瓜┃影视",
            "type": 3,
            "api": "csp_NanGua",
            "searchable": 1,
            "quickSearch": 1,
            "changeable": 1,
            "playerType": 2
        },
        {
            "key": "meowtv_Mmys",
            "name": "萌米┃影视",
            "type": 3,
            "api": "csp_AppMao",
            "searchable": 1,
            "quickSearch": 1,
            "changeable": 1,
            "ext": "FbjKZ1gO+9u81wMIxzHg+7x1Oep4CIFuZAlCy8a4qCgjGLacnxDo6wiBr66jP3X8J2mRx31u1XgkTTVrENVjfhQKUN2Yi12XNWQSlmVZxLtiSaSiZG0xf1Hw"
        },
        {
            "key": "meowtv_jlys",
            "name": "九六┃影视",
            "type": 3,
            "api": "csp_Cs1369",
            "searchable": 1,
            "quickSearch": 1,
            "changeable": 1,
            "playerType": 2,
            "jar": "http://meowtv.cn/meow3;md5;893D0391C828FD753EE4055EB5D4751A"
        },
        {
            "key": "meowtv_jhys",
            "name": "One ┃影视",
            "type": 3,
            "api": "csp_AppYsV2",
            "searchable": 1,
            "quickSearch": 1,
            "filterable": 1,
            "ext": "https://www.kuin.one/api.php/app/",
            "jar": "http://meowtv.cn/meow2;md5;0683D513E74B1B6BFF831AB7876B398A"
        },
        {
            "key": "meowtv_Libo",
            "name": "利播┃影视",
            "type": 3,
            "api": "csp_Libvio",
            "searchable": 1,
            "quickSearch": 1,
            "changeable": 1,
            "ext": "https://www.libvio.pro/"
        },
        {
            "key": "meowtv_czys",
            "name": "厂长┃影视",
            "type": 3,
            "api": "csp_Czsapp",
            "searchable": 1,
            "quickSearch": 1,
            "changeable": 1,
            "ext": "https://www.czzy88.com/"
        },
        {
            "key": "meowtv_ddys",
            "name": "低端┃影视",
            "type": 3,
            "api": "csp_Ddrk",
            "searchable": 1,
            "quickSearch": 1,
            "changeable": 1,
            "playerType": 2
        },
        {
            "key": "meowtv_77yy",
            "name": "七七┃影视",
            "type": 3,
            "api": "csp_Kunyu77",
            "searchable": 1,
            "quickSearch": 1,
            "changeable": 1,
            "jar": "http://meowtv.cn/meow3;md5;893D0391C828FD753EE4055EB5D4751A"
        },
        {
            "key": "meowtv_yqks",
            "name": "一起┃影视",
            "type": 3,
            "api": "csp_YQKan",
            "searchable": 1,
            "quickSearch": 1,
            "changeable": 1
        },
        {
            "key": "meowtv_Btoo",
            "name": "比特┃影视",
            "type": 3,
            "api": "csp_Bttwoo",
            "searchable": 1,
            "quickSearch": 1,
            "changeable": 1
        },
        {
            "key": "meowtv_nmys",
            "name": "农民┃影视",
            "type": 3,
            "api": "http://cdn.teyonds.com/js/drpy2.min.js",
            "searchable": 1,
            "quickSearch": 1,
            "filterable": 1,
            "ext": "http://cdn.teyonds.com/js/农民影视.js"
        },
        {
            "key": "meowtv_wfys",
            "name": "网飞┃影视",
            "type": 3,
            "api": "http://cdn.teyonds.com/js/drpy2.min.js",
            "searchable": 1,
            "quickSearch": 1,
            "filterable": 1,
            "ext": "http://cdn.teyonds.com/js/网飞影视.js"
        },
        {
            "key": "meowtv_dyxs",
            "name": "先生┃影视",
            "type": 3,
            "api": "http://cdn.teyonds.com/js/drpy2.min.js",
            "searchable": 1,
            "quickSearch": 1,
            "filterable": 1,
            "ext": "http://cdn.teyonds.com/js/电影先生.js"
        },
        {
            "key": "meowtv_mays",
            "name": "米爱┃影视",
            "type": 3,
            "api": "http://cdn.teyonds.com/js/drpy2.min.js",
            "searchable": 1,
            "quickSearch": 1,
            "filterable": 1,
            "ext": "http://cdn.teyonds.com/js/米爱影视.js"
        },
        {
            "key": "meowtv_qxys",
            "name": "秋霞┃影视",
            "type": 3,
            "api": "http://cdn.teyonds.com/js/drpy2.min.js",
            "searchable": 1,
            "quickSearch": 1,
            "filterable": 1,
            "ext": "http://cdn.teyonds.com/js/秋霞影视.js"
        },
        {
            "key": "meowtv_sjys",
            "name": "视觉┃影视",
            "type": 3,
            "api": "http://cdn.teyonds.com/js/drpy2.min.js",
            "searchable": 1,
            "quickSearch": 1,
            "filterable": 1,
            "ext": "http://cdn.teyonds.com/js/视觉影视.js"
        },
        {
            "key": "meowtv_xcys",
            "name": "星辰┃影视",
            "type": 3,
            "api": "http://cdn.teyonds.com/js/drpy2.min.js",
            "searchable": 1,
            "quickSearch": 1,
            "filterable": 1,
            "ext": "http://cdn.teyonds.com/js/星辰影视.js"
        },
        {
            "key": "meowtv_qnys",
            "name": "七年┃影视",
            "type": 3,
            "api": "csp_XBPQ",
            "searchable": 1,
            "quickSearch": 1,
            "filterable": 1,
            "ext": "http://cdn.teyonds.com/xp/七年影视.json"
        },
        {
            "key": "meowtv_thys",
            "name": "土豪┃影视",
            "type": 3,
            "api": "csp_XBPQ",
            "searchable": 1,
            "quickSearch": 1,
            "filterable": 1,
            "ext": "http://cdn.teyonds.com/xp/土豪影视.json"
        },
        {
            "key": "meowtv_Qxys",
            "name": "七新┃影视",
            "type": 3,
            "api": "csp_XBPQ",
            "searchable": 1,
            "quickSearch": 1,
            "filterable": 1,
            "ext": "http://cdn.teyonds.com/xp/七新影视.json"
        },
        {
            "key": "meowtv_ynys",
            "name": "鸭奈┃影视",
            "type": 3,
            "api": "csp_XYQHiker",
            "searchable": 1,
            "quickSearch": 1,
            "filterable": 1,
            "ext": "http://cdn.teyonds.com/xp/鸭奈影视.json",
            "jar": "http://meowtv.cn/meow4;md5;369DE8C4321A5C0ED6E7497F93863319"
        },
        {
            "key": "meowtv_bkys",
            "name": "不卡┃影视",
            "type": 3,
            "api": "csp_XBPQ",
            "searchable": 1,
            "quickSearch": 1,
            "filterable": 1,
            "ext": "http://cdn.teyonds.com/xp/不卡影视.json",
            "jar": "http://meowtv.cn/meow2;md5;0683D513E74B1B6BFF831AB7876B398A"
        },
        {
            "key": "meowtv_ssys",
            "name": "三思┃影视",
            "type": 3,
            "api": "csp_XBPQ",
            "searchable": 1,
            "quickSearch": 1,
            "filterable": 1,
            "ext": "http://cdn.teyonds.com/xp/三思影视.json",
            "jar": "http://meowtv.cn/meow2;md5;0683D513E74B1B6BFF831AB7876B398A"
        },
        {
            "key": "meowtv_wdys",
            "name": "万达┃影视",
            "type": 3,
            "api": "csp_XBPQ",
            "searchable": 1,
            "quickSearch": 1,
            "filterable": 1,
            "ext": "http://cdn.teyonds.com/xp/万达影视.json",
            "jar": "http://meowtv.cn/meow2;md5;0683D513E74B1B6BFF831AB7876B398A"
        },
        {
            "key": "meowtv_Nfys",
            "name": "奈飞┃影视",
            "type": 3,
            "api": "csp_XYQHiker",
            "searchable": 1,
            "quickSearch": 1,
            "filterable": 1,
            "ext": "http://cdn.teyonds.com/xp/奈飞影视.json",
            "jar": "http://meowtv.cn/meow4;md5;369DE8C4321A5C0ED6E7497F93863319"
        },
        {
            "key": "meowtv_Free",
            "name": "免费┃影视",
            "type": 3,
            "api": "csp_XBPQ",
            "searchable": 1,
            "quickSearch": 1,
            "filterable": 1,
            "ext": "http://cdn.teyonds.com/xp/免费影视.json"
        },
        {
            "key": "meowtv_qyyy",
            "name": "奇优┃影视",
            "type": 3,
            "api": "csp_XBPQ",
            "searchable": 1,
            "quickSearch": 1,
            "filterable": 1,
            "ext": "http://cdn.teyonds.com/xp/奇优影院.json"
        },
        {
            "key": "meowtv_bdys",
            "name": "哔嘀┃影视",
            "type": 3,
            "api": "csp_XYQHiker",
            "searchable": 1,
            "quickSearch": 1,
            "filterable": 1,
            "ext": "http://cdn.teyonds.com/xp/哔嘀影视.json",
            "jar": "http://meowtv.cn/meow4;md5;369DE8C4321A5C0ED6E7497F93863319"
        },
        {
            "key": "meowtv_348D",
            "name": "蓝光┃影视",
            "type": 3,
            "api": "csp_XBPQ",
            "searchable": 1,
            "quickSearch": 1,
            "filterable": 1,
            "ext": "http://cdn.teyonds.com/xp/蓝光影视.json",
            "jar": "http://meowtv.cn/meow2;md5;0683D513E74B1B6BFF831AB7876B398A"
        },
        {
            "key": "meowtv_03ys",
            "name": "零三┃影视",
            "type": 3,
            "api": "csp_XBPQ",
            "searchable": 1,
            "quickSearch": 1,
            "filterable": 1,
            "ext": "http://cdn.teyonds.com/xp/零三影视.json",
            "jar": "http://meowtv.cn/meow4;md5;369DE8C4321A5C0ED6E7497F93863319"
        },
        {
            "key": "meowtv_hxys",
            "name": "好戏┃影视",
            "type": 3,
            "api": "csp_XBPQ",
            "searchable": 1,
            "quickSearch": 1,
            "filterable": 1,
            "ext": "http://cdn.teyonds.com/xp/好戏影视.json"
        },
        {
            "key": "meowtv_phys",
            "name": "胖虎┃影视",
            "type": 3,
            "api": "csp_XBPQ",
            "searchable": 1,
            "quickSearch": 1,
            "filterable": 1,
            "ext": "http://cdn.teyonds.com/xp/胖虎影视.json"
        },
        {
            "key": "meowtv_dgys",
            "name": "达龟┃影视",
            "type": 3,
            "api": "csp_XPathFilter",
            "searchable": 1,
            "quickSearch": 1,
            "filterable": 1,
            "ext": "http://cdn.teyonds.com/xp/达龟影视.json"
        },
        {
            "key": "meowtv_akyy",
            "name": "爱看┃影视",
            "type": 3,
            "api": "csp_XYQHiker",
            "searchable": 1,
            "quickSearch": 1,
            "filterable": 1,
            "ext": "http://cdn.teyonds.com/xp/爱看影视.json",
            "jar": "http://meowtv.cn/meow4;md5;369DE8C4321A5C0ED6E7497F93863319"
        },
        {
            "key": "meowtv_scys",
            "name": "圣城┃影视",
            "type": 3,
            "api": "csp_XBPQ",
            "searchable": 1,
            "quickSearch": 1,
            "filterable": 1,
            "ext": "http://cdn.teyonds.com/xp/圣城影视.json"
        },
        {
            "key": "meowtv_tvbb",
            "name": "TVB ┃影视",
            "type": 3,
            "api": "csp_XBPQ",
            "searchable": 1,
            "quickSearch": 1,
            "filterable": 1,
            "ext": "http://cdn.teyonds.com/xp/TVB云播.json"
        },
        {
            "key": "meowtv_syys",
            "name": "速映┃影视",
            "type": 3,
            "api": "csp_XBPQ",
            "searchable": 1,
            "quickSearch": 1,
            "filterable": 1,
            "ext": "http://cdn.teyonds.com/xp/速映影视.json",
            "jar": "http://meowtv.cn/meow2;md5;0683D513E74B1B6BFF831AB7876B398A"
        },
        {
            "key": "meowtv_Shys",
            "name": "双黄┃影视",
            "type": 3,
            "api": "csp_XBPQ",
            "searchable": 1,
            "quickSearch": 1,
            "changeable": 1,
            "ext": "http://cdn.teyonds.com/xp/双黄影视.json",
            "jar": "http://meowtv.cn/meow4;md5;369DE8C4321A5C0ED6E7497F93863319"
        },
        {
            "key": "meowtv_myys",
            "name": "麻衣┃影视",
            "type": 3,
            "api": "csp_XBPQ",
            "searchable": 1,
            "quickSearch": 1,
            "filterable": 1,
            "ext": "http://cdn.teyonds.com/xp/麻衣影视.json",
            "jar": "http://meowtv.cn/meow2;md5;0683D513E74B1B6BFF831AB7876B398A"
        },
        {
            "key": "meowtv_Kkys",
            "name": "库库┃影视",
            "type": 3,
            "api": "csp_XBPQ",
            "searchable": 1,
            "quickSearch": 1,
            "filterable": 1,
            "ext": "http://cdn.teyonds.com/xp/库库影视.json",
            "jar": "http://meowtv.cn/meow2;md5;0683D513E74B1B6BFF831AB7876B398A"
        },
        {
            "key": "meowtv_wwys",
            "name": "五五┃影视",
            "type": 3,
            "api": "csp_XBPQ",
            "searchable": 1,
            "quickSearch": 1,
            "filterable": 1,
            "ext": "http://cdn.teyonds.com/xp/五五影视.json"
        },
        {
            "key": "meowtv_Hhys",
            "name": "黑狐┃影视",
            "type": 3,
            "api": "csp_XBPQ",
            "searchable": 1,
            "quickSearch": 1,
            "filterable": 1,
            "ext": "http://cdn.teyonds.com/xp/黑狐影视.json"
        },
        {
            "key": "meowtv_kcys",
            "name": "酷茶┃影视",
            "type": 3,
            "api": "csp_XBPQ",
            "searchable": 1,
            "quickSearch": 1,
            "filterable": 1,
            "ext": "http://cdn.teyonds.com/xp/酷茶影视.json"
        },
        {
            "key": "meowtv_ggys",
            "name": "光棍┃影视",
            "type": 3,
            "api": "csp_XBPQ",
            "searchable": 1,
            "quickSearch": 1,
            "filterable": 1,
            "ext": "http://cdn.teyonds.com/xp/光棍影视.json"
        },
        {
            "key": "meowtv_akys",
            "name": "爱看┃影视",
            "type": 3,
            "api": "csp_Ikanbot",
            "searchable": 1,
            "quickSearch": 1,
            "filterable": 1,
            "ext": "[排序:lz线路,kuaik]",
            "jar": "http://meowtv.cn/meow5;md5;6120D08F4EB1EDCE507BFCD1B339C482"
        },
        {
            "key": "meowtv_yyys",
            "name": "鸭鸭┃影视",
            "type": 3,
            "api": "csp_AppYsV2",
            "searchable": 1,
            "quickSearch": 1,
            "filterable": 1,
            "ext": "https://yayayaaapp.ynf.icu/api.php/app/"
        },
        {
            "key": "meowtv_xxys",
            "name": "新新┃影视",
            "type": 3,
            "api": "csp_AppYsV2",
            "searchable": 1,
            "quickSearch": 1,
            "filterable": 1,
            "ext": "http://4k.953365.cn:8090/xgapp.php/v3/"
        },
        {
            "key": "meowtv_Zzys",
            "name": "赞赞┃影视",
            "type": 3,
            "api": "csp_AppYsV2",
            "searchable": 1,
            "quickSearch": 1,
            "changeable": 1,
            "ext": "http://111.230.51.151:9696//api.php/app/"
        },
        {
            "key": "meowtv_xhys",
            "name": "小胡┃影视",
            "type": 1,
            "api": "http://c.小胡.icu/api.php/provide/vod/",
            "searchable": 1,
            "quickSearch": 1,
            "changeable": 1
        },
        {
            "key": "meowtv_yszj",
            "name": "之家┃影视",
            "type": 3,
            "api": "csp_AppYsV2",
            "searchable": 1,
            "quickSearch": 1,
            "filterable": 1,
            "ext": "http://yingszj.xn--654a.cc/api.php/app/",
            "jar": "http://meowtv.cn/meow2;md5;0683D513E74B1B6BFF831AB7876B398A"
        },
        {
            "key": "meowtv_69mj",
            "name": "六九┃影视",
            "type": 3,
            "api": "csp_AppYsV2",
            "searchable": 1,
            "quickSearch": 1,
            "filterable": 1,
            "ext": "https://www.69mj.com/xgapp.php/v2/",
            "jar": "http://meowtv.cn/meow2;md5;0683D513E74B1B6BFF831AB7876B398A"
        },
        {
            "key": "meowtv_zxzj",
            "name": "在线┃影视",
            "type": 3,
            "api": "csp_Zxzj",
            "searchable": 1,
            "quickSearch": 1,
            "changeable": 1,
            "ext": "https://www.zxzj.pro/",
            "jar": "http://meowtv.cn/meow3;md5;893D0391C828FD753EE4055EB5D4751A"
        },
        {
            "key": "meowtv_jpyy",
            "name": "荐片┃影视",
            "type": 3,
            "api": "http://cdn.teyonds.com/js/drpy2.min.js",
            "searchable": 1,
            "quickSearch": 1,
            "changeable": 1,
            "ext": "http://cdn.teyonds.com/js/荐片影视.js"
        },
        {
            "key": "meowtv_shys",
            "name": "骚火┃影视",
            "type": 3,
            "api": "http://cdn.teyonds.com/js/drpy2.min.js",
            "searchable": 1,
            "quickSearch": 1,
            "filterable": 1,
            "ext": "http://cdn.teyonds.com/js/骚火影视.js"
        },
        {
            "key": "meowtv_dmys",
            "name": "大米┃影视",
            "type": 3,
            "api": "http://cdn.teyonds.com/js/drpy2.min.js",
            "searchable": 1,
            "quickSearch": 1,
            "filterable": 1,
            "ext": "http://cdn.teyonds.com/js/大米影视.js"
        },
        {
            "key": "meowtv_kkys",
            "name": "看看┃影视",
            "type": 3,
            "api": "http://cdn.teyonds.com/js/drpy2.min.js",
            "searchable": 1,
            "quickSearch": 1,
            "filterable": 1,
            "ext": "http://cdn.teyonds.com/js/看看影视.js"
        },
        {
            "key": "meowtv_qfys",
            "name": "起飞┃影视",
            "type": 3,
            "api": "http://cdn.teyonds.com/js/drpy2.min.js",
            "searchable": 1,
            "quickSearch": 1,
            "filterable": 1,
            "ext": "http://cdn.teyonds.com/js/起飞影视.js"
        },
        {
            "key": "meowtv_zzys",
            "name": "子子┃影视",
            "type": 3,
            "api": "http://cdn.teyonds.com/js/drpy2.min.js",
            "searchable": 1,
            "quickSearch": 1,
            "filterable": 1,
            "ext": "http://cdn.teyonds.com/js/子子影视.js"
        },
        {
            "key": "meowtv_jyys",
            "name": "九悠┃影视",
            "type": 3,
            "api": "http://cdn.teyonds.com/js/drpy2.min.js",
            "searchable": 1,
            "quickSearch": 1,
            "filterable": 1,
            "ext": "http://cdn.teyonds.com/js/九悠影视.js"
        },
        {
            "key": "meowtv_vfys",
            "name": "VOF ┃影视",
            "type": 3,
            "api": "http://cdn.teyonds.com/js/drpy2.min.js",
            "searchable": 1,
            "quickSearch": 1,
            "filterable": 1,
            "ext": "http://cdn.teyonds.com/js/VOF影视.js"
        },
        {
            "key": "meowtv_nyys",
            "name": "纽约┃影视",
            "type": 3,
            "api": "http://cdn.teyonds.com/js/drpy2.min.js",
            "searchable": 1,
            "quickSearch": 1,
            "filterable": 1,
            "ext": "http://cdn.teyonds.com/js/纽约影视.js"
        },
        {
            "key": "meowtv_996y",
            "name": "酒六┃影视",
            "type": 3,
            "api": "csp_XBPQ",
            "searchable": 1,
            "quickSearch": 1,
            "filterable": 1,
            "ext": {
                "分类url": "https://www.cs1369.com/show/id/index.php/vod/show/area/{area}/id/{cateId}/page/{catePg}/year/{year}.html",
                "分类": "电影$1#电视剧$2#动漫$3#爽文短剧$4#动作片$6#喜剧片$7#爱情片$8#科幻片$9#恐怖片$10#剧情片$11#战争片$12#动画片$13#纪录片$14",
                "筛选": "1"
            }
        },
        {
            "key": "meowtv_vsys",
            "name": "威士┃影视",
            "type": 3,
            "api": "csp_XBPQ",
            "searchable": 1,
            "quickSearch": 1,
            "filterable": 1,
            "ext": "http://cdn.teyonds.com/xp/威士影视.json"
        },
        {
            "key": "meowtv_49ys",
            "name": "四九┃资源",
            "type": 1,
            "api": "https://49zyw.com/api.php/provide/vod/?ac=list",
            "searchable": 1,
            "quickSearch": 1,
            "filterable": 1,
            "categories": [
                "国产剧",
                "纪录片",
                "欧美剧",
                "香港剧",
                "动作片",
                "爱情片",
                "科幻片",
                "恐怖片",
                "剧情片",
                "战争片",
                "喜剧片",
                "动画片",
                "犯罪片",
                "韩国剧",
                "动漫",
                "电影",
                "大陆综艺",
                "港台综艺",
                "日韩综艺",
                "欧美综艺",
                "台湾剧",
                "国产动漫",
                "日本动漫",
                "欧美动漫",
                "泰国剧",
                "日剧",
                "电影解说",
                "奇幻片",
                "灾难片",
                "悬疑片",
                "其他片",
                "体育赛事",
                "海外剧"
            ]
        },
        {
            "key": "meowtv_lzzy",
            "name": "量子┃资源",
            "type": 1,
            "api": "http://cj.lziapi.com/api.php/provide/vod/",
            "searchable": 1,
            "quickSearch": 1,
            "filterable": 1,
            "playurl": "json:http://jx.84jia.com/m3u8ts.php?url=",
            "categories": [
                "国产剧",
                "国产动漫",
                "泰国剧",
                "台湾剧",
                "香港剧",
                "欧美剧",
                "韩国剧",
                "日本剧",
                "动漫",
                "体育",
                "剧情片",
                "动作片",
                "爱情片",
                "喜剧片"
            ]
        },
        {
            "key": "meowtv_ffzy",
            "name": "非凡┃资源",
            "type": 1,
            "api": "http://cj.ffzyapi.com/api.php/provide/vod/",
            "searchable": 1,
            "quickSearch": 1,
            "filterable": 1,
            "playurl": "json:http://jx.84jia.com/m3u8ts.php?url=",
            "categories": [
                "动作片",
                "喜剧片",
                "科幻片",
                "恐怖片",
                "爱情片",
                "剧情片",
                "战争片",
                "记录片",
                "国产剧",
                "欧美剧",
                "香港剧",
                "韩国剧",
                "台湾剧",
                "日本剧",
                "海外剧",
                "泰国剧",
                "国产动漫",
                "日韩动漫",
                "欧美动漫",
                "港台动漫",
                "海外动漫",
                "大陆综艺",
                "港台综艺",
                "日韩综艺",
                "欧美综艺"
            ]
        },
        {
            "key": "meowtv_snzy",
            "name": "索尼┃资源",
            "type": 1,
            "api": "https://suoniapi.com/api.php/provide/vod/?ac=list",
            "searchable": 1,
            "quickSearch": 1,
            "filterable": 1,
            "categories": [
                "动作片",
                "喜剧片",
                "科幻片",
                "恐怖片",
                "爱情片",
                "剧情片",
                "战争片",
                "记录片",
                "国产剧",
                "欧美剧",
                "香港剧",
                "韩国剧",
                "台湾剧",
                "日本剧",
                "海外剧",
                "泰国剧",
                "国产动漫",
                "日韩动漫",
                "欧美动漫",
                "港台动漫",
                "海外动漫",
                "大陆综艺",
                "港台综艺",
                "日韩综艺",
                "欧美综艺"
            ]
        },
        {
            "key": "meowtv_bfzy",
            "name": "暴风┃资源",
            "type": 1,
            "api": "https://bfzyapi.com/api.php/provide/vod/?ac=list",
            "searchable": 1,
            "quickSearch": 1,
            "filterable": 1,
            "categories": [
                "国产剧",
                "国产动漫",
                "大陆综艺",
                "港台综艺",
                "香港剧",
                "台湾剧",
                "日本剧",
                "欧美剧",
                "泰国剧",
                "日本动漫",
                "日本综艺",
                "综艺频道",
                "新马泰综艺",
                "纪录片",
                "科幻片",
                "喜剧片",
                "战争片"
            ],
            "jar": "http://meowtv.cn/meow2;md5;0683D513E74B1B6BFF831AB7876B398A"
        },
        {
            "key": "meowtv_kkzy",
            "name": "快看┃资源",
            "type": 1,
            "api": "https://kuaikan-api.com/api.php/provide/vod/from/kuaikan/",
            "searchable": 1,
            "quickSearch": 1,
            "filterable": 1,
            "playurl": "json:http://jx.84jia.com/m3u8ts.php?url=",
            "categories": [
                "国产剧",
                "港台剧",
                "国产动漫",
                "日韩剧",
                "欧美剧",
                "海外剧",
                "动作片",
                "爱情片",
                "剧情片",
                "科幻片",
                "奇幻片",
                "战争片",
                "犯罪片",
                "恐怖片",
                "悬疑片",
                "惊悚片",
                "冒险片"
            ]
        },
        {
            "key": "meowtv_33ys",
            "name": "三六┃视频",
            "type": 3,
            "api": "csp_SP33",
            "searchable": 1,
            "quickSearch": 1,
            "changeable": 1
        },
        {
            "key": "meowtv_qysp",
            "name": "奇艺┃视频",
            "type": 3,
            "api": "http://cdn.teyonds.com/js/drpy2.min.js",
            "searchable": 1,
            "quickSearch": 1,
            "filterable": 1,
            "ext": "http://cdn.teyonds.com/js/奇艺视频.js"
        },
        {
            "key": "meowtv_txsp",
            "name": "腾讯┃视频",
            "type": 3,
            "api": "http://cdn.teyonds.com/js/drpy2.min.js",
            "searchable": 1,
            "quickSearch": 1,
            "filterable": 1,
            "ext": "http://cdn.teyonds.com/js/腾讯视频.js"
        },
        {
            "key": "meowtv_yksp",
            "name": "优酷┃视频",
            "type": 3,
            "api": "http://cdn.teyonds.com/js/drpy2.min.js",
            "searchable": 1,
            "quickSearch": 1,
            "filterable": 1,
            "ext": "http://cdn.teyonds.com/js/优酷视频.js"
        },
        {
            "key": "meowtv_mgsp",
            "name": "芒果┃视频",
            "type": 3,
            "api": "http://cdn.teyonds.com/js/drpy2.min.js",
            "searchable": 1,
            "quickSearch": 1,
            "filterable": 1,
            "ext": "http://cdn.teyonds.com/js/芒果视频.js"
        },
        {
            "key": "meowtv_sgys",
            "name": "搜狗┃视频",
            "type": 3,
            "api": "http://cdn.teyonds.com/js/drpy2.min.js",
            "searchable": 1,
            "quickSearch": 1,
            "filterable": 1,
            "ext": "http://cdn.teyonds.com/js/搜狗视频.js"
        },
        {
            "key": "meowtv_fqdj",
            "name": "番茄┃短剧",
            "type": 3,
            "api": "http://cdn.teyonds.com/js/drpy2.min.js",
            "searchable": 1,
            "quickSearch": 1,
            "filterable": 1,
            "ext": "http://cdn.teyonds.com/js/番茄短剧.js"
        },
        {
            "key": "meowtv_bydj",
            "name": "榜一┃短剧",
            "type": 3,
            "api": "csp_XYQHiker",
            "searchable": 1,
            "quickSearch": 1,
            "filterable": 1,
            "ext": "http://cdn.teyonds.com/xp/榜一短剧.json",
            "jar": "http://meowtv.cn/meow4;md5;369DE8C4321A5C0ED6E7497F93863319"
        },
        {
            "key": "meowtv_hmdj",
            "name": "河马┃短剧",
            "type": 3,
            "api": "csp_Duanjuw",
            "searchable": 1,
            "quickSearch": 1,
            "filterable": 1,
            "jar": "http://meowtv.cn/meow5;md5;6120D08F4EB1EDCE507BFCD1B339C482"
        },
        {
            "key": "meowtv_rxdj",
            "name": "锐星┃短剧",
            "type": 3,
            "api": "csp_AppYsV2",
            "searchable": 1,
            "quickSearch": 1,
            "filterable": 1,
            "ext": "http://122.228.84.103:6822/api.php/app/"
        },
        {
            "key": "meowtv_ygcl",
            "name": "影港┃磁力",
            "type": 3,
            "api": "csp_XYQHiker",
            "searchable": 1,
            "quickSearch": 1,
            "filterable": 1,
            "ext": "http://cdn.teyonds.com/xp/影港磁力.json",
            "jar": "http://meowtv.cn/meow4;md5;369DE8C4321A5C0ED6E7497F93863319"
        },
        {
            "key": "meowtv_6Vcl",
            "name": "新6v┃磁力",
            "type": 3,
            "api": "csp_SixV",
            "searchable": 1,
            "quickSearch": 1,
            "changeable": 1,
            "ext": "http://www.xb6v.com/"
        },
        {
            "key": "meowtv_mp4c",
            "name": "MP4 ┃磁力",
            "type": 3,
            "api": "csp_Mp4Mov",
            "searchable": 1,
            "quickSearch": 1,
            "filterable": 1,
            "jar": "http://meowtv.cn/meow4;md5;369DE8C4321A5C0ED6E7497F93863319"
        },
        {
            "key": "meowtv_kbcl",
            "name": "酷吧┃磁力",
            "type": 3,
            "api": "csp_KubaCL",
            "searchable": 1,
            "quickSearch": 1,
            "filterable": 1,
            "jar": "http://meowtv.cn/meow4;md5;369DE8C4321A5C0ED6E7497F93863319"
        },
        {
            "key": "meowtv_xlbc",
            "name": "迅雷┃磁力",
            "type": 3,
            "api": "csp_Xunlei8",
            "searchable": 1,
            "quickSearch": 1,
            "filterable": 1,
            "jar": "http://meowtv.cn/meow4;md5;369DE8C4321A5C0ED6E7497F93863319"
        },
        {
            "key": "meowtv_Dm84",
            "name": "巴士┃动漫",
            "type": 3,
            "api": "csp_Dm84",
            "searchable": 1,
            "quickSearch": 1,
            "changeable": 1
        },
        {
            "key": "meowtv_Ying",
            "name": "樱花┃动漫",
            "type": 3,
            "api": "csp_Ying",
            "searchable": 1,
            "quickSearch": 1,
            "changeable": 1
        },
        {
            "key": "meowtv_Anim",
            "name": "日漫┃动漫",
            "type": 3,
            "api": "csp_Anime1",
            "searchable": 1,
            "quickSearch": 1,
            "changeable": 1
        },
        {
            "key": "meowtv_yjdm",
            "name": "异界┃动漫",
            "type": 3,
            "api": "csp_Ysj",
            "searchable": 1,
            "quickSearch": 1,
            "changeable": 1
        },
        {
            "key": "meowtv_ntdm",
            "name": "柠桐┃动漫",
            "type": 3,
            "api": "http://cdn.teyonds.com/js/drpy2.min.js",
            "searchable": 1,
            "quickSearch": 1,
            "filterable": 1,
            "ext": "http://cdn.teyonds.com/js/柠桐动漫.js"
        },
        {
            "key": "meowtv_mddm",
            "name": "漫岛┃动漫",
            "type": 3,
            "api": "http://cdn.teyonds.com/js/drpy2.min.js",
            "searchable": 1,
            "quickSearch": 1,
            "filterable": 1,
            "ext": "http://cdn.teyonds.com/js/漫岛动漫.js"
        },
        {
            "key": "meowtv_lmdm",
            "name": "路漫┃动漫",
            "type": 3,
            "api": "http://cdn.teyonds.com/js/drpy2.min.js",
            "searchable": 1,
            "quickSearch": 1,
            "filterable": 1,
            "ext": "http://cdn.teyonds.com/js/路漫动漫.js"
        },
        {
            "key": "meowtv_qmdm",
            "name": "奇米┃动漫",
            "type": 3,
            "api": "http://cdn.teyonds.com/js/drpy2.min.js",
            "searchable": 1,
            "quickSearch": 1,
            "filterable": 1,
            "ext": "http://cdn.teyonds.com/js/奇米动漫.js"
        },
        {
            "key": "meowtv_kbdm",
            "name": "看吧┃动漫",
            "type": 3,
            "api": "http://cdn.teyonds.com/js/drpy2.min.js",
            "searchable": 1,
            "quickSearch": 1,
            "filterable": 1,
            "ext": "http://cdn.teyonds.com/js/看吧动漫.js"
        },
        {
            "key": "meowtv_88kq",
            "name": "八八┃体育",
            "type": 3,
            "api": "http://cdn.teyonds.com/js/drpy2.min.js",
            "searchable": 0,
            "quickSearch": 0,
            "changeable": 0,
            "ext": "http://cdn.teyonds.com/js/八八体育.js"
        },
        {
            "key": "meowtv_qmty",
            "name": "JRK ┃体育",
            "type": 3,
            "api": "http://cdn.teyonds.com/js/drpy2.min.js",
            "searchable": 0,
            "quickSearch": 0,
            "changeable": 0,
            "ext": "http://cdn.teyonds.com/js/JRK体育.js"
        },
        {
            "key": "meowtv_310q",
            "name": "三一┃体育",
            "type": 3,
            "api": "http://cdn.teyonds.com/js/drpy2.min.js",
            "searchable": 0,
            "quickSearch": 0,
            "changeable": 0,
            "ext": "http://cdn.teyonds.com/js/三一体育.js"
        },
        {
            "key": "meowtv_gdty",
            "name": "格斗┃体育",
            "type": 3,
            "api": "http://cdn.teyonds.com/js/drpy2.min.js",
            "searchable": 1,
            "quickSearch": 0,
            "filterable": 0,
            "ext": "http://cdn.teyonds.com/js/格斗体育.js"
        },
        {
            "key": "meowtv_qety",
            "name": "企鹅┃体育",
            "type": 3,
            "api": "csp_XPath",
            "searchable": 0,
            "quickSearch": 0,
            "changeable": 0,
            "ext": "http://cdn.teyonds.com/xp/企鹅体育.json"
        },
        {
            "key": "meowtv_mxmv",
            "name": "明星┃ MV ",
            "type": 3,
            "api": "csp_Bili",
            "searchable": 0,
            "quickSearch": 0,
            "changeable": 0,
            "style": {
                "type": "rect",
                "ratio": 1.597
            },
            "ext": "http://cdn.teyonds.com/xp/明星MV.json"
        },
        {
            "key": "meowtv_kqmv",
            "name": "酷奇┃ MV ",
            "type": 3,
            "api": "http://cdn.teyonds.com/js/drpy2.min.js",
            "searchable": 0,
            "quickSearch": 0,
            "changeable": 0,
            "ext": "http://cdn.teyonds.com/js/酷奇视频.js"
        },
        {
            "key": "meowtv_hyzb",
            "name": "虎牙┃直播",
            "type": 3,
            "api": "http://cdn.teyonds.com/js/drpy2.min.js",
            "searchable": 0,
            "quickSearch": 0,
            "changeable": 0,
            "ext": "http://cdn.teyonds.com/js/虎牙直播.js"
        },
        {
            "key": "meowtv_dyzb",
            "name": "斗鱼┃直播",
            "type": 3,
            "api": "http://cdn.teyonds.com/js/drpy2.min.js",
            "searchable": 0,
            "quickSearch": 0,
            "changeable": 0,
            "ext": "http://cdn.teyonds.com/js/斗鱼直播.js"
        },
        {
            "key": "meowtv_blzb",
            "name": "哔哩┃直播",
            "type": 3,
            "api": "http://cdn.teyonds.com/js/drpy2.min.js",
            "searchable": 0,
            "quickSearch": 0,
            "filterable": 0,
            "ext": "http://cdn.teyonds.com/js/哔哩直播.js"
        },
        {
            "key": "meowtv_jhzb",
            "name": "聚合┃直播",
            "type": 3,
            "api": "csp_Yj1211",
            "searchable": 0,
            "quickSearch": 0,
            "changeable": 0
        },
        {
            "key": "meowtv_jdsp",
            "name": "聚短┃视频",
            "type": 3,
            "api": "http://cdn.teyonds.com/js/drpy2.min.js",
            "searchable": 0,
            "quickSearch": 0,
            "changeable": 0,
            "ext": "http://cdn.teyonds.com/js/聚短视频.js"
        },
        {
            "key": "meowtv_ysxs",
            "name": "有声┃小说",
            "type": 3,
            "api": "http://cdn.teyonds.com/js/drpy2.min.js",
            "searchable": 0,
            "quickSearch": 0,
            "changeable": 0,
            "ext": "http://cdn.teyonds.com/js/有声小说.js"
        },
        {
            "key": "meowtv_blhj",
            "name": "哔哩┃合集",
            "type": 3,
            "api": "csp_Bili",
            "searchable": 0,
            "quickSearch": 0,
            "changeable": 0,
            "ext": "http://cdn.teyonds.com/xp/哔哩合集.json"
        },
        {
            "key": "meowtv_blgq",
            "name": "哔哩┃歌曲",
            "type": 3,
            "api": "csp_Bili",
            "searchable": 1,
            "quickSearch": 0,
            "changeable": 0,
            "ext": "http://cdn.teyonds.com/xp/哔哩歌曲.json"
        },
        {
            "key": "meowtv_jjjx",
            "name": "急救┃教学",
            "type": 3,
            "api": "csp_FirstAid",
            "searchable": 0,
            "quickSearch": 0,
            "changeable": 0
        },
        {
            "key": "meowtv_txdh",
            "name": "腾讯┃动画",
            "type": 3,
            "api": "http://cdn.teyonds.com/js/drpy2.min.js",
            "searchable": 1,
            "quickSearch": 1,
            "filterable": 1,
            "ext": "http://cdn.teyonds.com/js/腾讯动画.js"
        },
        {
            "key": "meowtv_qydh",
            "name": "奇艺┃动画",
            "type": 3,
            "api": "http://cdn.teyonds.com/js/drpy2.min.js",
            "searchable": 1,
            "quickSearch": 1,
            "filterable": 1,
            "ext": "http://cdn.teyonds.com/js/奇艺动画.js"
        },
        {
            "key": "meowtv_mgdh",
            "name": "芒果┃动画",
            "type": 3,
            "api": "http://cdn.teyonds.com/js/drpy2.min.js",
            "searchable": 1,
            "quickSearch": 1,
            "filterable": 1,
            "ext": "http://cdn.teyonds.com/js/芒果动画.js"
        },
        {
            "key": "meowtv_tqss",
            "name": "童趣┃搜视",
            "type": 3,
            "api": "http://cdn.teyonds.com/js/drpy2.min.js",
            "searchable": 1,
            "quickSearch": 1,
            "filterable": 1,
            "ext": "http://cdn.teyonds.com/js/童趣搜视.js"
        },
        {
            "key": "meowtv_etqm",
            "name": "儿童┃启蒙",
            "type": 3,
            "api": "http://cdn.teyonds.com/js/drpy2.min.js",
            "searchable": 0,
            "quickSearch": 0,
            "changeable": 0,
            "ext": "http://cdn.teyonds.com/js/儿童启蒙.js"
        },
        {
            "key": "meowtv_dtgx",
            "name": "灯塔┃国学",
            "type": 3,
            "api": "csp_Bili",
            "searchable": 0,
            "quickSearch": 0,
            "filterable": 0,
            "ext": "http://cdn.teyonds.com/xp/灯塔国学.json"
        },
        {
            "key": "meowtv_sejy",
            "name": "少儿┃教育",
            "type": 3,
            "api": "csp_Bili",
            "searchable": 0,
            "quickSearch": 0,
            "changeable": 0,
            "ext": "http://cdn.teyonds.com/xp/少儿教育.json"
        },
        {
            "key": "meowtv_xxkt",
            "name": "小学┃课堂",
            "type": 3,
            "api": "csp_Bili",
            "searchable": 0,
            "quickSearch": 0,
            "changeable": 0,
            "ext": "http://cdn.teyonds.com/xp/小学课堂.json"
        },
        {
            "key": "meowtv_czkt",
            "name": "初中┃课堂",
            "type": 3,
            "api": "csp_Bili",
            "searchable": 0,
            "quickSearch": 0,
            "changeable": 0,
            "ext": "http://cdn.teyonds.com/xp/初中课堂.json"
        },
        {
            "key": "meowtv_gzkt",
            "name": "高中┃课堂",
            "type": 3,
            "api": "csp_Bili",
            "searchable": 0,
            "quickSearch": 0,
            "changeable": 0,
            "ext": "http://cdn.teyonds.com/xp/高中课堂.json"
        },
        {
            "key": "meowtv_bdsp",
            "name": "本地┃视频",
            "type": 3,
            "api": "csp_LocalFile",
            "searchable": 0,
            "quickSearch": 0,
            "filterable": 0,
            "type_flag": 0,
            "jar": "http://meowtv.cn/meow5;md5;6120D08F4EB1EDCE507BFCD1B339C482"
        },
        {
            "key": "meowtv_qyss",
            "name": "七夜┃搜索",
            "type": 3,
            "api": "csp_Dovx",
            "searchable": 1,
            "quickSearch": 1,
            "changeable": 0,
            "ext": "http://127.0.0.1:9978/file/MeowTV/token.txt+4k|auto|fhd"
        },
        {
            "key": "meowtv_Psss",
            "name": "盘Se┃搜索",
            "type": 3,
            "api": "csp_PanSearch",
            "searchable": 1,
            "quickSearch": 1,
            "changeable": 0,
            "ext": "http://127.0.0.1:9978/file/MeowTV/token.txt+4k|auto|fhd"
        },
        {
            "key": "meowtv_psss",
            "name": "盘搜┃搜索",
            "type": 3,
            "api": "csp_PanSou",
            "searchable": 1,
            "quickSearch": 1,
            "changeable": 0,
            "ext": "http://127.0.0.1:9978/file/MeowTV/token.txt+4k|auto|fhd"
        },
        {
            "key": "meowtv_ysss",
            "name": "云搜┃搜索",
            "type": 3,
            "api": "csp_UpYun",
            "searchable": 1,
            "quickSearch": 1,
            "changeable": 0,
            "ext": "http://127.0.0.1:9978/file/MeowTV/token.txt+4k|auto|fhd"
        },
        {
            "key": "push_agent",
            "name": "推送┃链接",
            "type": 3,
            "api": "csp_Push",
            "searchable": 0,
            "quickSearch": 0,
            "changeable": 0,
            "ext": "http://127.0.0.1:9978/file/MeowTV/token.txt+4k|auto|fhd"
        }
    ],
    "parses": [
        {
            "name": "聚合",
            "type": 3,
            "url": "Demo"
        },
        {
            "name": "MeowTV",
            "type": 1,
            "url": "http://jx.meowtv.cn/?url="
        }
    ],
    "lives": [
        {
            "name": "直播",
            "type": 0,
            "playerType": 1,
            "url": "http://meowtv.cn/zb",
            "ua": "okhttp/3.15",
            "epg": "http://epg.112114.xyz/?ch={name}&date={date}",
            "logo": "https://epg.112114.xyz/logo/{name}.png"
        }
    ],
    "spider": "http://meowtv.cn/meow1;md5;D1115D99527D75948D095085B1407ADD",
    "wallpaper": "http://tool.teyonds.com/api",
    "ijk": [
        {
            "group": "软解码",
            "options": [
                {
                    "category": 4,
                    "name": "opensles",
                    "value": "0"
                },
                {
                    "category": 1,
                    "name": "fflags",
                    "value": "fastseek"
                },
                {
                    "category": 4,
                    "name": "framedrop",
                    "value": "1"
                },
                {
                    "category": 4,
                    "name": "enable-accurate-seek",
                    "value": "0"
                },
                {
                    "category": 4,
                    "name": "start-on-prepared",
                    "value": "1"
                },
                {
                    "category": 1,
                    "name": "http-detect-range-support",
                    "value": "0"
                },
                {
                    "category": 4,
                    "name": "mediacodec-handle-resolution-change",
                    "value": "0"
                },
                {
                    "category": 2,
                    "name": "skip_loop_filter",
                    "value": "48"
                },
                {
                    "category": 4,
                    "name": "reconnect",
                    "value": "1"
                },
                {
                    "category": 4,
                    "name": "overlay-format",
                    "value": "842225234"
                },
                {
                    "category": 4,
                    "name": "mediacodec",
                    "value": "0"
                },
                {
                    "category": 4,
                    "name": "mediacodec-auto-rotate",
                    "value": "0"
                },
                {
                    "category": 4,
                    "name": "soundtouch",
                    "value": "1"
                },
                {
                    "category": 4,
                    "name": "mediacodec-hevc",
                    "value": "0"
                },
                {
                    "category": 1,
                    "name": "dns_cache_timeout",
                    "value": "600000000"
                }
            ]
        },
        {
            "group": "硬解码",
            "options": [
                {
                    "category": 4,
                    "name": "opensles",
                    "value": "0"
                },
                {
                    "category": 1,
                    "name": "fflags",
                    "value": "fastseek"
                },
                {
                    "category": 4,
                    "name": "framedrop",
                    "value": "1"
                },
                {
                    "category": 4,
                    "name": "enable-accurate-seek",
                    "value": "0"
                },
                {
                    "category": 4,
                    "name": "start-on-prepared",
                    "value": "1"
                },
                {
                    "category": 1,
                    "name": "http-detect-range-support",
                    "value": "0"
                },
                {
                    "category": 4,
                    "name": "mediacodec-handle-resolution-change",
                    "value": "1"
                },
                {
                    "category": 2,
                    "name": "skip_loop_filter",
                    "value": "48"
                },
                {
                    "category": 4,
                    "name": "reconnect",
                    "value": "1"
                },
                {
                    "category": 4,
                    "name": "overlay-format",
                    "value": "842225234"
                },
                {
                    "category": 4,
                    "name": "mediacodec",
                    "value": "1"
                },
                {
                    "category": 4,
                    "name": "mediacodec-auto-rotate",
                    "value": "1"
                },
                {
                    "category": 4,
                    "name": "soundtouch",
                    "value": "1"
                },
                {
                    "category": 4,
                    "name": "mediacodec-hevc",
                    "value": "1"
                },
                {
                    "category": 1,
                    "name": "dns_cache_timeout",
                    "value": "600000000"
                }
            ]
        }
    ],
    "doh": [
        {
            "name": "Google",
            "url": "https://dns.google/dns-query",
            "ips": [
                "8.8.4.4",
                "8.8.8.8"
            ]
        },
        {
            "name": "Cloudflare",
            "url": "https://cloudflare-dns.com/dns-query",
            "ips": [
                "1.1.1.1",
                "1.0.0.1",
                "2606:4700:4700::1111",
                "2606:4700:4700::1001"
            ]
        },
        {
            "name": "AdGuard",
            "url": "https://dns.adguard.com/dns-query",
            "ips": [
                "94.140.14.140",
                "94.140.14.141"
            ]
        },
        {
            "name": "DNSWatch",
            "url": "https://resolver2.dns.watch/dns-query",
            "ips": [
                "84.200.69.80",
                "84.200.70.40"
            ]
        },
        {
            "name": "Quad9",
            "url": "https://dns.quad9.net/dns-quer",
            "ips": [
                "9.9.9.9",
                "149.112.112.112"
            ]
        }
    ],
    "ads": [
        "mimg.0c1q0l.cn",
        "www.googletagmanager.com",
        "www.google-analytics.com",
        "mc.usihnbcq.cn",
        "mg.g1mm3d.cn",
        "mscs.svaeuzh.cn",
        "cnzz.hhttm.top",
        "tp.vinuxhome.com",
        "cnzz.mmstat.com",
        "www.baihuillq.com",
        "s23.cnzz.com",
        "z3.cnzz.com",
        "c.cnzz.com",
        "stj.v1vo.top",
        "z12.cnzz.com",
        "img.mosflower.cn",
        "tips.gamevvip.com",
        "ehwe.yhdtns.com",
        "xdn.cqqc3.com",
        "www.jixunkyy.cn",
        "sp.chemacid.cn",
        "hm.baidu.com",
        "s9.cnzz.com",
        "z6.cnzz.com",
        "um.cavuc.com",
        "mav.mavuz.com",
        "wofwk.aoidf3.com",
        "z5.cnzz.com",
        "xc.hubeijieshikj.cn",
        "tj.tianwenhu.com",
        "xg.gars57.cn",
        "k.jinxiuzhilv.com",
        "cdn.bootcss.com",
        "ppl.xunzhuo123.com",
        "xomk.jiangjunmh.top",
        "img.xunzhuo123.com",
        "z1.cnzz.com",
        "s13.cnzz.com",
        "xg.huataisangao.cn",
        "z7.cnzz.com",
        "xg.huataisangao.cn",
        "z2.cnzz.com",
        "s96.cnzz.com",
        "q11.cnzz.com",
        "thy.dacedsfa.cn",
        "xg.whsbpw.cn",
        "s19.cnzz.com",
        "z8.cnzz.com",
        "s4.cnzz.com",
        "f5w.as12df.top",
        "ae01.alicdn.com",
        "www.92424.cn",
        "k.wudejia.com",
        "vivovip.mmszxc.top",
        "qiu.xixiqiu.com",
        "cdnjs.hnfenxun.com",
        "cms.qdwght.com"
    ]
}